<?xml version="1.0" encoding="utf-8"?>
<!-- Generator: Adobe Illustrator 17.0.0, SVG Export Plug-In . SVG Version: 6.00 Build 0)  -->
<!DOCTYPE svg PUBLIC "-//W3C//DTD SVG 1.1//EN" "http://www.w3.org/Graphics/SVG/1.1/DTD/svg11.dtd">
<svg version="1.1" id="Layer_1" xmlns="http://www.w3.org/2000/svg" xmlns:xlink="http://www.w3.org/1999/xlink" x="0px" y="0px"
	 width="150px" height="150px" viewBox="0 0 150 150" enable-background="new 0 0 150 150" xml:space="preserve">
<circle fill="#A3418B" cx="75.307" cy="75.179" r="74.012"/>
<g>
	<path fill="#323233" d="M95.947,47.228c-2.25-0.885-4.406-1.328-6.471-1.328c-5.607,0-8.408,3.042-8.408,9.127v6.03h12.943v12.889
		H81.068v43.757H63.642V73.946h-9.515V61.057h9.515v-7.025c0-6.453,2.102-11.653,6.307-15.6c4.204-3.946,9.92-5.919,17.149-5.919
		c3.539,0,6.49,0.369,8.85,1.106V47.228z"/>
</g>
<g>
</g>
<g>
</g>
<g>
</g>
<g>
</g>
<g>
</g>
<g>
</g>
<g>
</g>
<g>
</g>
<g>
</g>
<g>
</g>
<g>
</g>
<g>
</g>
<g>
</g>
<g>
</g>
<g>
</g>
</svg>
